{
  "title": "Bancoin Mainnet Explorer",
  "server": "http://api.bancoinplatform.com/api/v2",
  "alias": "Main",
  "activeDelegates": "51",
  "rewardOffset": "1",
  "currencies": [],
  "knownWallets": {},
  "defaults": {
    "token": "BCT",
    "symbol": "Ƀ",
    "currency": null,
    "priceChartOptions": {
      "enabled": false,
      "period": "day",
      "type": "price"
    },
    "priceChart": false
  }
}
